<?xml version="1.0" encoding="UTF-8" standalone="no"?>
<!-- Created with Inkscape (http://www.inkscape.org/) -->

<svg
   xmlns:dc="http://purl.org/dc/elements/1.1/"
   xmlns:cc="http://creativecommons.org/ns#"
   xmlns:rdf="http://www.w3.org/1999/02/22-rdf-syntax-ns#"
   xmlns:svg="http://www.w3.org/2000/svg"
   xmlns="http://www.w3.org/2000/svg"
   xmlns:sodipodi="http://sodipodi.sourceforge.net/DTD/sodipodi-0.dtd"
   xmlns:inkscape="http://www.inkscape.org/namespaces/inkscape"
   width="340.14127mm"
   height="55.292072mm"
   viewBox="0 0 340.14127 55.292072"
   version="1.1"
   id="svg8"
   inkscape:version="0.92.3 (2405546, 2018-03-11)"
   sodipodi:docname="power-stencil-simple-flow.svg">
  <title
     id="title1457">PowerStencil simple flow description</title>
  <defs
     id="defs2">
    <marker
       inkscape:stockid="Arrow1Send"
       orient="auto"
       refY="0"
       refX="0"
       id="Arrow1Send"
       style="overflow:visible"
       inkscape:isstock="true">
      <path
         id="path1098"
         d="M 0,0 5,-5 -12.5,0 5,5 Z"
         style="fill:#4d4d4d;fill-opacity:1;fill-rule:evenodd;stroke:#4d4d4d;stroke-width:1.00000003pt;stroke-opacity:1"
         transform="matrix(-0.2,0,0,-0.2,-1.2,0)"
         inkscape:connector-curvature="0" />
    </marker>
    <marker
       inkscape:stockid="Arrow1Lend"
       orient="auto"
       refY="0"
       refX="0"
       id="Arrow1Lend"
       style="overflow:visible"
       inkscape:isstock="true">
      <path
         id="path1086"
         d="M 0,0 5,-5 -12.5,0 5,5 Z"
         style="fill:#333333;fill-opacity:1;fill-rule:evenodd;stroke:#4d4d4d;stroke-width:1.00000003pt;stroke-opacity:1"
         transform="matrix(-0.8,0,0,-0.8,-10,0)"
         inkscape:connector-curvature="0" />
    </marker>
    <inkscape:path-effect
       effect="bspline"
       id="path-effect1081"
       is_visible="true"
       weight="33.333333"
       steps="2"
       helper_size="0"
       apply_no_weight="true"
       apply_with_weight="true"
       only_selected="false" />
  </defs>
  <sodipodi:namedview
     id="base"
     pagecolor="#ffffff"
     bordercolor="#666666"
     borderopacity="1.0"
     inkscape:pageopacity="0.0"
     inkscape:pageshadow="2"
     inkscape:zoom="0.7"
     inkscape:cx="641.18508"
     inkscape:cy="2.7826171"
     inkscape:document-units="mm"
     inkscape:current-layer="layer1"
     showgrid="false"
     inkscape:window-width="1920"
     inkscape:window-height="1141"
     inkscape:window-x="0"
     inkscape:window-y="31"
     inkscape:window-maximized="1"
     fit-margin-top="10"
     fit-margin-left="10"
     fit-margin-right="10"
     fit-margin-bottom="10" />
  <metadata
     id="metadata5">
    <rdf:RDF>
      <cc:Work
         rdf:about="">
        <dc:format>image/svg+xml</dc:format>
        <dc:type
           rdf:resource="http://purl.org/dc/dcmitype/StillImage" />
        <dc:title>PowerStencil simple flow description</dc:title>
        <dc:creator>
          <cc:Agent>
            <dc:title>L.Briais</dc:title>
          </cc:Agent>
        </dc:creator>
      </cc:Work>
    </rdf:RDF>
  </metadata>
  <g
     inkscape:label="Calque 1"
     inkscape:groupmode="layer"
     id="layer1"
     transform="translate(30.579753,-38.363802)">
    <rect
       style="color:#000000;clip-rule:nonzero;display:inline;overflow:visible;visibility:visible;opacity:1;isolation:auto;mix-blend-mode:normal;color-interpolation:sRGB;color-interpolation-filters:linearRGB;solid-color:#000000;solid-opacity:1;vector-effect:none;fill:#a7c2db;fill-opacity:0;fill-rule:evenodd;stroke:#b3b3b3;stroke-width:1.00654888;stroke-linecap:butt;stroke-linejoin:miter;stroke-miterlimit:4;stroke-dasharray:4.02619566, 4.02619566;stroke-dashoffset:0;stroke-opacity:1;color-rendering:auto;image-rendering:auto;shape-rendering:auto;text-rendering:auto;enable-background:accumulate"
       id="rect927"
       width="202.58376"
       height="33.93668"
       x="75.10601"
       y="49.020126"
       ry="3.7410421" />
    <rect
       style="color:#000000;clip-rule:nonzero;display:inline;overflow:visible;visibility:visible;opacity:1;isolation:auto;mix-blend-mode:normal;color-interpolation:sRGB;color-interpolation-filters:linearRGB;solid-color:#000000;solid-opacity:1;vector-effect:none;fill:#a7c2db;fill-opacity:0;fill-rule:evenodd;stroke:#b3b3b3;stroke-width:1.00654888;stroke-linecap:butt;stroke-linejoin:miter;stroke-miterlimit:4;stroke-dasharray:4.02619566, 4.02619566;stroke-dashoffset:0;stroke-opacity:1;color-rendering:auto;image-rendering:auto;shape-rendering:auto;text-rendering:auto;enable-background:accumulate"
       id="rect927-7"
       width="69.897194"
       height="34.285522"
       x="-4.7348213"
       y="48.867077"
       ry="3.7794967" />
    <path
       style="fill:#4d4d4d;fill-rule:evenodd;stroke:#4d4d4d;stroke-width:4.16499996;stroke-linecap:butt;stroke-linejoin:miter;stroke-miterlimit:4;stroke-dasharray:none;stroke-opacity:1;marker-end:url(#Arrow1Send)"
       d="m -20.579753,67.932995 c 104.23538,0 208.470493,0 312.705333,0"
       id="path1079"
       inkscape:connector-curvature="0"
       inkscape:path-effect="#path-effect1081"
       inkscape:original-d="m -20.579753,67.932995 c 104.23538,-2.64e-4 208.470493,-2.64e-4 312.705333,0" />
    <g
       id="g948">
      <rect
         ry="1.3100638"
         y="59.92662"
         x="2.6126425"
         height="16.012749"
         width="55.700253"
         id="rect815"
         style="color:#000000;clip-rule:nonzero;display:inline;overflow:visible;visibility:visible;opacity:1;isolation:auto;mix-blend-mode:normal;color-interpolation:sRGB;color-interpolation-filters:linearRGB;solid-color:#000000;solid-opacity:1;vector-effect:none;fill:#a7c2db;fill-opacity:1;fill-rule:evenodd;stroke:#000000;stroke-width:0.48427609;stroke-linecap:butt;stroke-linejoin:miter;stroke-miterlimit:4;stroke-dasharray:none;stroke-dashoffset:0;stroke-opacity:1;color-rendering:auto;image-rendering:auto;shape-rendering:auto;text-rendering:auto;enable-background:accumulate" />
      <text
         id="text819"
         y="66.31649"
         x="10.098216"
         style="font-style:normal;font-weight:normal;font-size:4.63020849px;line-height:125%;font-family:sans-serif;letter-spacing:0px;word-spacing:0px;fill:#000000;fill-opacity:1;stroke:none;stroke-width:0.26458332px;stroke-linecap:butt;stroke-linejoin:miter;stroke-opacity:1"
         xml:space="preserve"><tspan
           id="tspan821"
           style="stroke-width:0.26458332px"
           y="66.31649"
           x="10.098216"
           sodipodi:role="line">Project </tspan><tspan
           id="tspan865"
           style="stroke-width:0.26458332px"
           y="72.104248"
           x="10.098216"
           sodipodi:role="line">Templates &amp; Data</tspan></text>
    </g>
    <g
       id="g954"
       transform="translate(-2.9812257e-6,-0.76938629)">
      <rect
         ry="1.3100638"
         y="60.696007"
         x="81.007019"
         height="16.012749"
         width="55.700253"
         id="rect815-6"
         style="color:#000000;clip-rule:nonzero;display:inline;overflow:visible;visibility:visible;opacity:1;isolation:auto;mix-blend-mode:normal;color-interpolation:sRGB;color-interpolation-filters:linearRGB;solid-color:#000000;solid-opacity:1;vector-effect:none;fill:#a7c2db;fill-opacity:1;fill-rule:evenodd;stroke:#000000;stroke-width:0.48427609;stroke-linecap:butt;stroke-linejoin:miter;stroke-miterlimit:4;stroke-dasharray:none;stroke-dashoffset:0;stroke-opacity:1;color-rendering:auto;image-rendering:auto;shape-rendering:auto;text-rendering:auto;enable-background:accumulate" />
      <text
         id="text819-2"
         y="67.085876"
         x="82.828049"
         style="font-style:normal;font-weight:normal;font-size:4.63020849px;line-height:125%;font-family:sans-serif;letter-spacing:0px;word-spacing:0px;fill:#000000;fill-opacity:1;stroke:none;stroke-width:0.26458332px;stroke-linecap:butt;stroke-linejoin:miter;stroke-opacity:1"
         xml:space="preserve"><tspan
           id="tspan821-7"
           style="stroke-width:0.26458332px"
           y="67.085876"
           x="82.828049"
           sodipodi:role="line">PowerStencil</tspan><tspan
           id="tspan861"
           style="stroke-width:0.26458332px"
           y="72.873634"
           x="82.828049"
           sodipodi:role="line">Core actions &amp; Plugins</tspan></text>
    </g>
    <g
       id="g960"
       transform="translate(-1.3073388,-1.5253372)">
      <rect
         ry="1.3100638"
         y="61.451958"
         x="146.01892"
         height="16.012749"
         width="55.700253"
         id="rect815-6-9"
         style="color:#000000;clip-rule:nonzero;display:inline;overflow:visible;visibility:visible;opacity:1;isolation:auto;mix-blend-mode:normal;color-interpolation:sRGB;color-interpolation-filters:linearRGB;solid-color:#000000;solid-opacity:1;vector-effect:none;fill:#a7c2db;fill-opacity:1;fill-rule:evenodd;stroke:#000000;stroke-width:0.48427609;stroke-linecap:butt;stroke-linejoin:miter;stroke-miterlimit:4;stroke-dasharray:none;stroke-dashoffset:0;stroke-opacity:1;color-rendering:auto;image-rendering:auto;shape-rendering:auto;text-rendering:auto;enable-background:accumulate" />
      <text
         id="text819-2-3"
         y="68.290604"
         x="159.57373"
         style="font-style:normal;font-weight:normal;font-size:4.63020849px;line-height:125%;font-family:sans-serif;letter-spacing:0px;word-spacing:0px;fill:#000000;fill-opacity:1;stroke:none;stroke-width:0.26458332px;stroke-linecap:butt;stroke-linejoin:miter;stroke-opacity:1"
         xml:space="preserve"><tspan
           id="tspan821-7-9"
           style="stroke-width:0.26458332px"
           y="68.290604"
           x="159.57373"
           sodipodi:role="line">Generated</tspan><tspan
           id="tspan861-2"
           style="stroke-width:0.26458332px"
           y="74.078362"
           x="159.57373"
           sodipodi:role="line">Files &amp; Code</tspan></text>
    </g>
    <g
       id="g1077"
       transform="translate(2.2510687e-6)">
      <rect
         ry="1.3075371"
         y="59.942062"
         x="208.43158"
         height="15.981865"
         width="63.152916"
         id="rect815-6-9-8"
         style="color:#000000;clip-rule:nonzero;display:inline;overflow:visible;visibility:visible;opacity:1;isolation:auto;mix-blend-mode:normal;color-interpolation:sRGB;color-interpolation-filters:linearRGB;solid-color:#000000;solid-opacity:1;vector-effect:none;fill:#ccd7e2;fill-opacity:1;fill-rule:evenodd;stroke:#000000;stroke-width:0.51515979;stroke-linecap:butt;stroke-linejoin:miter;stroke-miterlimit:4;stroke-dasharray:none;stroke-dashoffset:0;stroke-opacity:1;color-rendering:auto;image-rendering:auto;shape-rendering:auto;text-rendering:auto;enable-background:accumulate" />
      <text
         id="text819-2-3-3"
         y="66.316498"
         x="210.64307"
         style="font-style:normal;font-weight:normal;font-size:4.63020849px;line-height:125%;font-family:sans-serif;letter-spacing:0px;word-spacing:0px;fill:#000000;fill-opacity:1;stroke:none;stroke-width:0.26458332px;stroke-linecap:butt;stroke-linejoin:miter;stroke-opacity:1"
         xml:space="preserve"><tspan
           id="tspan921"
           style="stroke-width:0.26458332px"
           y="66.316498"
           x="210.64307"
           sodipodi:role="line">Optionally triggers action</tspan><tspan
           id="tspan925"
           style="stroke-width:0.26458332px"
           y="72.104256"
           x="210.64307"
           sodipodi:role="line">on generated files</tspan></text>
    </g>
    <text
       xml:space="preserve"
       style="font-style:normal;font-variant:normal;font-weight:bold;font-stretch:normal;font-size:4.63020849px;line-height:125%;font-family:sans-serif;-inkscape-font-specification:'sans-serif, Bold';font-variant-ligatures:normal;font-variant-caps:normal;font-variant-numeric:normal;font-feature-settings:normal;text-align:start;letter-spacing:0px;word-spacing:0px;writing-mode:lr-tb;text-anchor:start;fill:#999999;fill-opacity:1;stroke:none;stroke-width:0.26458332px;stroke-linecap:butt;stroke-linejoin:miter;stroke-opacity:1"
       x="2.1105075"
       y="55.366859"
       id="text1006"><tspan
         sodipodi:role="line"
         id="tspan1004"
         x="2.1105075"
         y="55.366859"
         style="font-style:normal;font-variant:normal;font-weight:bold;font-stretch:normal;font-size:4.63020849px;font-family:sans-serif;-inkscape-font-specification:'sans-serif, Bold';font-variant-ligatures:normal;font-variant-caps:normal;font-variant-numeric:normal;font-feature-settings:normal;text-align:start;writing-mode:lr-tb;text-anchor:start;fill:#999999;stroke-width:0.26458332px">Git repository</tspan></text>
    <text
       xml:space="preserve"
       style="font-style:normal;font-variant:normal;font-weight:bold;font-stretch:normal;font-size:4.63020849px;line-height:125%;font-family:sans-serif;-inkscape-font-specification:'sans-serif, Bold';font-variant-ligatures:normal;font-variant-caps:normal;font-variant-numeric:normal;font-feature-settings:normal;text-align:start;letter-spacing:0px;word-spacing:0px;writing-mode:lr-tb;text-anchor:start;fill:#999999;fill-opacity:1;stroke:none;stroke-width:0.26458332px;stroke-linecap:butt;stroke-linejoin:miter;stroke-opacity:1"
       x="80.534271"
       y="55.366859"
       id="text1006-9"><tspan
         sodipodi:role="line"
         x="80.534271"
         y="55.366859"
         style="font-style:normal;font-variant:normal;font-weight:bold;font-stretch:normal;font-size:4.63020849px;font-family:sans-serif;-inkscape-font-specification:'sans-serif, Bold';font-variant-ligatures:normal;font-variant-caps:normal;font-variant-numeric:normal;font-feature-settings:normal;text-align:start;writing-mode:lr-tb;text-anchor:start;fill:#999999;stroke-width:0.26458332px"
         id="tspan1026">Build process</tspan></text>
  </g>
</svg>
